…
``` r
group_by(instacart,order_id) %>% 
  summarise(n=n())
```

    ## `summarise()` ungrouping output (override with `.groups` argument)

    ## # A tibble: 131,209 x 2
    ##    order_id     n
    ##       <int> <int>
    ##  1        1     8
    ##  2       36     8
    ##  3       38     9
    ##  4       96     7
    ##  5       98    49
    ##  6      112    11
    ##  7      170    17
    ##  8      218     5
    ##  9      226    13
    ## 10      349    11
    ## # ... with 131,199 more rows
